^C:\USERS\ANDREA\PROGRAMMING\LOCAL\VIA_PATHFINDING\DEBUG\VIA_PATHFINDING.LIB|C:\USERS\ANDREA\PROGRAMMING\LOCAL\VIA_PATHFINDING\PATHFINDERVISUALIZER\DEBUG\MAIN.OBJ|C:\USERS\ANDREA\PROGRAMMING\LOCAL\VIA_PATHFINDING\PATHFINDERVISUALIZER\DEBUG\PATHFINDERVISUALIZER.EXE.EMBED.MANIFEST.RES|C:\USERS\ANDREA\PROGRAMMING\LOCAL\VIA_PATHFINDING\PATHFINDERVISUALIZER\DEBUG\PATHFINDERVISUALIZER.OBJ|C:\USERS\ANDREA\PROGRAMMING\LOCAL\VIA_PATHFINDING\PATHFINDERVISUALIZER\DEBUG\PATHFINDERVISUALIZER.RES
/ERRORREPORT:PROMPT /OUT:"C:\Users\andrea\programming\local\Via_Pathfinding\Debug\PathfinderVisualizer.exe" /INCREMENTAL /NOLOGO kernel32.lib user32.lib gdi32.lib winspool.lib comdlg32.lib advapi32.lib shell32.lib ole32.lib oleaut32.lib uuid.lib odbc32.lib odbccp32.lib /MANIFEST /ManifestFile:"Debug\PathfinderVisualizer.exe.intermediate.manifest" /MANIFESTUAC:"level='asInvoker' uiAccess='false'" /DEBUG /PDB:"C:\Users\andrea\programming\local\Via_Pathfinding\Debug\PathfinderVisualizer.pdb" /SUBSYSTEM:WINDOWS /TLBID:1 /DYNAMICBASE /NXCOMPAT /IMPLIB:"C:\Users\andrea\programming\local\Via_Pathfinding\Debug\PathfinderVisualizer.lib" /MACHINE:X86 Debug\PathfinderVisualizer.res
Debug\PathfinderVisualizer.exe.embed.manifest.res
Debug\main.obj
Debug\PathfinderVisualizer.obj
C:\Users\andrea\programming\local\Via_Pathfinding\Debug\Via_Pathfinding.lib
