^C:\USERS\ANDREA\PROGRAMMING\LOCAL\VIA_PATHFINDING\PATHFINDERVISUALIZER\PATHFINDERVISUALIZER.RC
/D _UNICODE /D UNICODE /l"0x0409" /nologo /fo"Debug\PathfinderVisualizer.res" PathfinderVisualizer.rc /D _UNICODE /D UNICODE /l"0x0409" /nologo /fo"Debug\PathfinderVisualizer.res" C:\USERS\ANDREA\PROGRAMMING\LOCAL\VIA_PATHFINDING\PATHFINDERVISUALIZER\PATHFINDERVISUALIZER.RC
^C:\USERS\ANDREA\PROGRAMMING\LOCAL\VIA_PATHFINDING\PATHFINDERVISUALIZER\DEBUG\PATHFINDERVISUALIZER_MANIFEST.RC
/nologo /fo"Debug\PathfinderVisualizer.exe.embed.manifest.res" Debug\PathfinderVisualizer_manifest.rc /nologo /fo"Debug\PathfinderVisualizer.exe.embed.manifest.res" C:\USERS\ANDREA\PROGRAMMING\LOCAL\VIA_PATHFINDING\PATHFINDERVISUALIZER\DEBUG\PATHFINDERVISUALIZER_MANIFEST.RC
