^C:\USERS\ANDREA\PROGRAMMING\LOCAL\VIA_PATHFINDING\PATHFINDING_VISUALIZER\MAIN.CPP|C:\USERS\ANDREA\PROGRAMMING\LOCAL\VIA_PATHFINDING\PATHFINDING_VISUALIZER\VIAVISUALIZER.CPP
C:\USERS\ANDREA\PROGRAMMING\LOCAL\VIA_PATHFINDING\PATHFINDING_VISUALIZER\DEBUG\VIAVISUALIZER.OBJ
^C:\USERS\ANDREA\PROGRAMMING\LOCAL\VIA_PATHFINDING\PATHFINDING_VISUALIZER\MAIN.CPP
C:\USERS\ANDREA\PROGRAMMING\LOCAL\VIA_PATHFINDING\PATHFINDING_VISUALIZER\DEBUG\VC100.PDB
C:\USERS\ANDREA\PROGRAMMING\LOCAL\VIA_PATHFINDING\PATHFINDING_VISUALIZER\DEBUG\MAIN.OBJ
^C:\USERS\ANDREA\PROGRAMMING\LOCAL\VIA_PATHFINDING\PATHFINDING_VISUALIZER\VIAVISUALIZER.CPP
C:\USERS\ANDREA\PROGRAMMING\LOCAL\VIA_PATHFINDING\PATHFINDING_VISUALIZER\DEBUG\VC100.PDB
