^C:\USERS\ANDREA\PROGRAMMING\LOCAL\VIA_PATHFINDING\DEBUG\VIA_PATHFINDING.LIB|C:\USERS\ANDREA\PROGRAMMING\LOCAL\VIA_PATHFINDING\PATHFINDING_VISUALIZER\DEBUG\MAIN.OBJ|C:\USERS\ANDREA\PROGRAMMING\LOCAL\VIA_PATHFINDING\PATHFINDING_VISUALIZER\DEBUG\PATHFINDING_VISUALIZER.EXE.EMBED.MANIFEST.RES|C:\USERS\ANDREA\PROGRAMMING\LOCAL\VIA_PATHFINDING\PATHFINDING_VISUALIZER\DEBUG\VIAVISUALIZER.OBJ
C:\USERS\ANDREA\PROGRAMMING\LOCAL\VIA_PATHFINDING\SFML-2.2\LIB\SFML-GRAPHICS-D.LIB
C:\USERS\ANDREA\PROGRAMMING\LOCAL\VIA_PATHFINDING\SFML-2.2\LIB\SFML-WINDOW-D.LIB
C:\USERS\ANDREA\PROGRAMMING\LOCAL\VIA_PATHFINDING\SFML-2.2\LIB\SFML-SYSTEM-D.LIB
C:\PROGRAM FILES (X86)\MICROSOFT SDKS\WINDOWS\V7.0A\LIB\KERNEL32.LIB
C:\PROGRAM FILES (X86)\MICROSOFT SDKS\WINDOWS\V7.0A\LIB\USER32.LIB
C:\PROGRAM FILES (X86)\MICROSOFT SDKS\WINDOWS\V7.0A\LIB\GDI32.LIB
C:\PROGRAM FILES (X86)\MICROSOFT SDKS\WINDOWS\V7.0A\LIB\WINSPOOL.LIB
C:\PROGRAM FILES (X86)\MICROSOFT SDKS\WINDOWS\V7.0A\LIB\COMDLG32.LIB
C:\PROGRAM FILES (X86)\MICROSOFT SDKS\WINDOWS\V7.0A\LIB\ADVAPI32.LIB
C:\PROGRAM FILES (X86)\MICROSOFT SDKS\WINDOWS\V7.0A\LIB\SHELL32.LIB
C:\PROGRAM FILES (X86)\MICROSOFT SDKS\WINDOWS\V7.0A\LIB\OLE32.LIB
C:\PROGRAM FILES (X86)\MICROSOFT SDKS\WINDOWS\V7.0A\LIB\OLEAUT32.LIB
C:\PROGRAM FILES (X86)\MICROSOFT SDKS\WINDOWS\V7.0A\LIB\UUID.LIB
C:\PROGRAM FILES (X86)\MICROSOFT SDKS\WINDOWS\V7.0A\LIB\ODBC32.LIB
C:\PROGRAM FILES (X86)\MICROSOFT SDKS\WINDOWS\V7.0A\LIB\ODBCCP32.LIB
C:\USERS\ANDREA\PROGRAMMING\LOCAL\VIA_PATHFINDING\PATHFINDING_VISUALIZER\DEBUG\PATHFINDING_VISUALIZER.EXE.EMBED.MANIFEST.RES
C:\USERS\ANDREA\PROGRAMMING\LOCAL\VIA_PATHFINDING\PATHFINDING_VISUALIZER\DEBUG\MAIN.OBJ
C:\USERS\ANDREA\PROGRAMMING\LOCAL\VIA_PATHFINDING\PATHFINDING_VISUALIZER\DEBUG\VIAVISUALIZER.OBJ
C:\USERS\ANDREA\PROGRAMMING\LOCAL\VIA_PATHFINDING\DEBUG\VIA_PATHFINDING.LIB
C:\WINDOWS\SYSTEM32\TZRES.DLL
C:\USERS\ANDREA\PROGRAMMING\LOCAL\VIA_PATHFINDING\DEBUG\PATHFINDING_VISUALIZER.ILK
C:\USERS\ANDREA\PROGRAMMING\LOCAL\VIA_PATHFINDING\DEBUG\PATHFINDING_VISUALIZER.EXE
C:\USERS\ANDREA\PROGRAMMING\LOCAL\VIA_PATHFINDING\DEBUG\PATHFINDING_VISUALIZER.PDB
C:\WINDOWS\GLOBALIZATION\SORTING\SORTDEFAULT.NLS
C:\PROGRAM FILES (X86)\MICROSOFT VISUAL STUDIO 10.0\VC\LIB\MSVCPRTD.LIB
C:\PROGRAM FILES (X86)\MICROSOFT VISUAL STUDIO 10.0\VC\LIB\MSVCRTD.LIB
C:\PROGRAM FILES (X86)\MICROSOFT VISUAL STUDIO 10.0\VC\LIB\OLDNAMES.LIB
